…
```
## # A tibble: 17,692 x 71
##    country commname ISSCAAP_spgroup ISSCAAP_spgroup… ASFIS_spcode ASFIS_sciname
##    <fct>   <fct>              <dbl> <chr>            <chr>        <chr>        
##  1 Albania Angelsh…              38 Sharks, rays, c… 10903XXXXX   Squatinidae  
##  2 Albania Atlanti…              36 Tunas, bonitos,… 1750100101   Sarda sarda  
##  3 Albania Barracu…              37 Miscellaneous p… 17710001XX   Sphyraena spp
##  4 Albania Blue an…              45 Shrimps, prawns  2280203101   Aristeus ant…
##  5 Albania Blue wh…              32 Cods, hakes, ha… 1480403301   Micromesisti…
##  6 Albania Bluefish              37 Miscellaneous p… 1702021301   Pomatomus sa…
##  7 Albania Bogue                 33 Miscellaneous c… 1703926101   Boops boops  
##  8 Albania Caramot…              45 Shrimps, prawns  2280100117   Penaeus kera…
##  9 Albania Catshar…              38 Sharks, rays, c… 10801003XX   Scyliorhinus…
## 10 Albania Common …              57 Squids, cuttlef… 3210200202   Sepia offici…
## # … with 17,682 more rows, and 65 more variables: FAO_area <dbl>, unit <chr>,
## #   `1950` <chr>, `1951` <chr>, `1952` <chr>, `1953` <chr>, `1954` <chr>,
## #   `1955` <chr>, `1956` <chr>, `1957` <chr>, `1958` <chr>, `1959` <chr>,
## #   `1960` <chr>, `1961` <chr>, `1962` <chr>, `1963` <chr>, `1964` <chr>,
## #   `1965` <chr>, `1966` <chr>, `1967` <chr>, `1968` <chr>, `1969` <chr>,
## #   `1970` <chr>, `1971` <chr>, `1972` <chr>, `1973` <chr>, `1974` <chr>,
## #   `1975` <chr>, `1976` <chr>, `1977` <chr>, `1978` <chr>, `1979` <chr>,
## #   `1980` <chr>, `1981` <chr>, `1982` <chr>, `1983` <chr>, `1984` <chr>,
## #   `1985` <chr>, `1986` <chr>, `1987` <chr>, `1988` <chr>, `1989` <chr>,
…
```r
fisheries3<-
fisheries2 %>% 
  pivot_longer(`1950`:`2012`,
               names_to= "year", 
               values_to= "catch", 
                values_drop_na= TRUE,
  )
fisheries3
```

```
## # A tibble: 376,771 x 10
##    country commname ISSCAAP_spgroup ISSCAAP_spgroup… ASFIS_spcode ASFIS_sciname
##    <fct>   <fct>              <dbl> <chr>            <chr>        <chr>        
##  1 Albania Angelsh…              38 Sharks, rays, c… 10903XXXXX   Squatinidae  
##  2 Albania Angelsh…              38 Sharks, rays, c… 10903XXXXX   Squatinidae  
##  3 Albania Angelsh…              38 Sharks, rays, c… 10903XXXXX   Squatinidae  
##  4 Albania Angelsh…              38 Sharks, rays, c… 10903XXXXX   Squatinidae  
##  5 Albania Angelsh…              38 Sharks, rays, c… 10903XXXXX   Squatinidae  
##  6 Albania Angelsh…              38 Sharks, rays, c… 10903XXXXX   Squatinidae  
##  7 Albania Angelsh…              38 Sharks, rays, c… 10903XXXXX   Squatinidae  
##  8 Albania Angelsh…              38 Sharks, rays, c… 10903XXXXX   Squatinidae  
##  9 Albania Angelsh…              38 Sharks, rays, c… 10903XXXXX   Squatinidae  
## 10 Albania Angelsh…              38 Sharks, rays, c… 10903XXXXX   Squatinidae  
## # … with 376,761 more rows, and 4 more variables: FAO_area <dbl>, unit <chr>,
## #   year <chr>, catch <chr>
```


```r
fisheries_tidy<-
fisheries3 %>% 
  transform(catch = str_split(catch, " ")) %>% 
                unnest(catch)
fisheries_tidy
```

```
## # A tibble: 411,421 x 10
##    country commname ISSCAAP_spgroup ISSCAAP_spgroup… ASFIS_spcode ASFIS_sciname
##    <fct>   <fct>              <dbl> <chr>            <chr>        <chr>        
##  1 Albania Angelsh…              38 Sharks, rays, c… 10903XXXXX   Squatinidae  
##  2 Albania Angelsh…              38 Sharks, rays, c… 10903XXXXX   Squatinidae  
##  3 Albania Angelsh…              38 Sharks, rays, c… 10903XXXXX   Squatinidae  
##  4 Albania Angelsh…              38 Sharks, rays, c… 10903XXXXX   Squatinidae  
##  5 Albania Angelsh…              38 Sharks, rays, c… 10903XXXXX   Squatinidae  
##  6 Albania Angelsh…              38 Sharks, rays, c… 10903XXXXX   Squatinidae  
##  7 Albania Angelsh…              38 Sharks, rays, c… 10903XXXXX   Squatinidae  
##  8 Albania Angelsh…              38 Sharks, rays, c… 10903XXXXX   Squatinidae  
##  9 Albania Angelsh…              38 Sharks, rays, c… 10903XXXXX   Squatinidae  
## 10 Albania Angelsh…              38 Sharks, rays, c… 10903XXXXX   Squatinidae  
## # … with 411,411 more rows, and 4 more variables: FAO_area <dbl>, unit <chr>,
## #   year <chr>, catch <chr>
```

9. Refocus the data only to include country, ISSCAAP_spgroupname, ASFIS_spcode, ASFIS_sciname, year, and catch.

```r
fisheries_tidy2<-
fisheries_tidy %>% 
  select(country, ISSCAAP_spgroupname, ASFIS_spcode, ASFIS_sciname, year, catch)
fisheries_tidy2
```

```
## # A tibble: 411,421 x 6
##    country ISSCAAP_spgroupname     ASFIS_spcode ASFIS_sciname year  catch
##    <fct>   <chr>                   <chr>        <chr>         <chr> <chr>
##  1 Albania Sharks, rays, chimaeras 10903XXXXX   Squatinidae   1995  0    
##  2 Albania Sharks, rays, chimaeras 10903XXXXX   Squatinidae   1995  0    
##  3 Albania Sharks, rays, chimaeras 10903XXXXX   Squatinidae   1996  53   
##  4 Albania Sharks, rays, chimaeras 10903XXXXX   Squatinidae   1997  20   
##  5 Albania Sharks, rays, chimaeras 10903XXXXX   Squatinidae   1998  31   
##  6 Albania Sharks, rays, chimaeras 10903XXXXX   Squatinidae   1999  30   
##  7 Albania Sharks, rays, chimaeras 10903XXXXX   Squatinidae   2000  30   
##  8 Albania Sharks, rays, chimaeras 10903XXXXX   Squatinidae   2001  16   
##  9 Albania Sharks, rays, chimaeras 10903XXXXX   Squatinidae   2002  79   
## 10 Albania Sharks, rays, chimaeras 10903XXXXX   Squatinidae   2003  1    
## # … with 411,411 more rows
```
…
```r
fisheries_tidy2$catch<- as.numeric(fisheries_tidy2$catch)
```

```
## Warning: NAs introduced by coercion
```

```r
fisheries_tidy2
```

```
## # A tibble: 411,421 x 6
##    country ISSCAAP_spgroupname     ASFIS_spcode ASFIS_sciname year  catch
##    <fct>   <chr>                   <chr>        <chr>         <chr> <dbl>
##  1 Albania Sharks, rays, chimaeras 10903XXXXX   Squatinidae   1995      0
##  2 Albania Sharks, rays, chimaeras 10903XXXXX   Squatinidae   1995      0
##  3 Albania Sharks, rays, chimaeras 10903XXXXX   Squatinidae   1996     53
##  4 Albania Sharks, rays, chimaeras 10903XXXXX   Squatinidae   1997     20
##  5 Albania Sharks, rays, chimaeras 10903XXXXX   Squatinidae   1998     31
##  6 Albania Sharks, rays, chimaeras 10903XXXXX   Squatinidae   1999     30
##  7 Albania Sharks, rays, chimaeras 10903XXXXX   Squatinidae   2000     30
##  8 Albania Sharks, rays, chimaeras 10903XXXXX   Squatinidae   2001     16
##  9 Albania Sharks, rays, chimaeras 10903XXXXX   Squatinidae   2002     79
## 10 Albania Sharks, rays, chimaeras 10903XXXXX   Squatinidae   2003      1
## # … with 411,411 more rows
```
…
12. Which country had the largest overall catch in the year 2000?

```r
fisheries_tidy2 %>% 
  select(year, country, catch) %>% 
  filter(year == "2000") %>% 
  arrange(desc(catch))
```

```
## # A tibble: 9,585 x 3
##    year  country                    catch
##    <chr> <fct>                      <dbl>
##  1 2000  Peru                     9575717
##  2 2000  China                    3419068
##  3 2000  Chile                    1700640
##  4 2000  Chile                    1234299
##  5 2000  Russian Federation       1215065
##  6 2000  China                    1203288
##  7 2000  United States of America 1182438
##  8 2000  China                    1102782
##  9 2000  China                    1041234
## 10 2000  Viet Nam                 1014945
## # … with 9,575 more rows
```
##peru had the largest overall catch

13. Which country caught the most sardines (_Sardina_) between the years 1990-2000?

```r
fisheries_tidy2 %>% 
  select(country, catch, year, ASFIS_sciname) %>% 
  filter(ASFIS_sciname == "Sardina pilchardus" & year>= 1990 & year<= 2000) %>% 
  group_by(country) %>% 
  summarise(catch= sum(catch, na.rm= TRUE)) %>% 
  arrange(desc(catch))
```

```
## # A tibble: 37 x 2
##    country              catch
##    <fct>                <dbl>
##  1 Morocco            4785190
##  2 Spain              2056817
##  3 Russian Federation 1035139
##  4 Portugal            926318
##  5 Ukraine             784730
##  6 Algeria             631733
##  7 Italy               377907
##  8 Turkey              273565
##  9 France              263871
## 10 Denmark             242017
## # … with 27 more rows
```
## morocco
14. Which five countries caught the most cephalopods between 2008-2012?

```r
fisheries_tidy2 %>% 
  select(country, ISSCAAP_spgroupname, catch, year) %>% 
  filter(ISSCAAP_spgroupname == "Squids, cuttlefishes, octopuses" & year >= 2008 &year <= 2012) %>% 
  group_by(country) %>% 
summarise(catch= sum(catch, na.rm= TRUE)) %>% 
arrange(desc(catch))
```

```
## # A tibble: 122 x 2
##    country                    catch
##    <fct>                      <dbl>
##  1 China                    4785139
##  2 Peru                     2274232
##  3 Japan                    1644085
##  4 Korea, Republic of       1535454
##  5 Viet Nam                 1292000
##  6 Chile                     723186
##  7 Indonesia                 684567
##  8 United States of America  613400
##  9 Thailand                  603529
## 10 Taiwan Province of China  593638
## # … with 112 more rows
```
##China, Peru, Japan, Korea, and Viet Nam

15. Given the top five countries from question 12 above, which species was the highest catch total? The lowest?


```r
fisheries_tidy2 %>% 
  filter(ISSCAAP_spgroupname == "Squids, cuttlefishes, octopuses" & year>= 2008 & year <= 2012 & country == "China"| country == "Peru" | country == "Japan" | country == "Korea" | country == "Viet Nam") %>% 
  group_by(ASFIS_sciname) %>% 
  summarise(catch= sum(catch, na.rm= TRUE)) %>% 
  arrange(desc(catch))
```

```
## # A tibble: 246 x 2
##    ASFIS_sciname               catch
##    <chr>                       <dbl>
##  1 Engraulis ringens       278401317
##  2 Osteichthyes             68449476
##  3 Sardinops melanostictus  62150527
##  4 Theragra chalcogramma    56940271
##  5 Scomber japonicus        43798362
##  6 Sardinops sagax          41879666
##  7 Todarodes pacificus      19707304
##  8 Engraulis japonicus      19546899
##  9 Katsuwonus pelamis       16832210
## 10 Cololabis saira          16511987
## # … with 236 more rows
```
…
17. Use the data to do at least one exploratory analysis of your choice. What can you learn?
##who catches the most miscellaneous coastal fishes?

```r
fisheries_tidy2 %>% 
  filter(ISSCAAP_spgroupname == "Miscellaneous coastal fishes") %>% 
  group_by(country) %>% 
  summarise(catch= sum(catch, na.rm= TRUE)) %>% 
  arrange(desc(catch))
```

```
## # A tibble: 150 x 2
##    country               catch
##    <fct>                 <dbl>
##  1 China              36961275
##  2 India              28060848
##  3 Denmark            24371336
##  4 Japan              22223753
##  5 Indonesia          18979007
##  6 Philippines        16273590
##  7 Korea, Republic of  9919627
##  8 Brazil              8918923
##  9 Thailand            7948087
## 10 Un. Sov. Soc. Rep.  7305555
## # … with 140 more rows
```
…
