…
```r
funtubes <-
homerange %>% 
  filter(taxon == "snakes") %>% 
  select(mean.hra.m2, family, genus, species) %>% 
  arrange(mean.hra.m2)

funtubes
```

```
## # A tibble: 41 x 4
##    mean.hra.m2 family     genus       species     
##          <dbl> <chr>      <chr>       <chr>       
##  1        200  viperidae  bitis       schneideri  
##  2        253  colubridae carphopis   viridis     
##  3        600  colubridae thamnophis  butleri     
##  4        700  colubridae carphopis   vermis      
##  5       2400  viperidae  vipera      latastei    
##  6       2614. viperidae  gloydius    shedaoensis 
##  7       6476  colubridae diadophis   punctatus   
##  8      10655  viperidae  agkistrodon piscivorous 
##  9      15400  colubridae oocatochus  rufodorsatus
## 10      17400  colubridae pituophis   catenifer   
## # … with 31 more rows
```
…
8. You suspect that homerange and mass are correlated in birds. We need a ratio that facilitates exploration of this prediction. First, build a new dataframe called `hra_ratio` that is limited to genus, species, mean.mass.g, log10.mass, log10.hra. Arrange it in ascending order by mean mass in grams.  


```r
hra_ratio <-
  homerange %>% 
  select(genus, species, mean.mass.g, log10.mass, log10.hra) %>% 
  arrange(mean.mass.g)
  
hra_ratio
```

```
## # A tibble: 569 x 5
##    genus          species        mean.mass.g log10.mass log10.hra
##    <chr>          <chr>                <dbl>      <dbl>     <dbl>
##  1 priolepis      hipoliti              0.22    -0.658    -1.52  
##  2 lythrypnus     dalli                 0.31    -0.509    -0.301 
##  3 amblycirrhitus pinos                 0.45    -0.347     0.405 
##  4 nerophis       lumbriciformis        1.22     0.0864    1.10  
##  5 salmo          salar                 2        0.301     1.65  
##  6 centropyge     argi                  2.5      0.398     0.0531
##  7 amblyeleotris  japonica              2.7      0.431     1.45  
##  8 cottus         carolinae             3        0.477     1.67  
##  9 thalassoma     bifasciatum           3.12     0.494     2.01  
## 10 carphopis      vermis                3.46     0.539     2.85  
## # … with 559 more rows
```

9. Replace the existing `hra_ratio` dataframe with a new dataframe that adds a column calculating the ratio of log 10 hra to log 10 mass. Call it `hra.mass.ratio`. Arrange it in descending order by mean mass in grams.  


```r
hra_ratio <-
  hra_ratio %>% 
  mutate(hra.mass.ratio = log10.hra/log10.mass) %>% 
  arrange(desc(mean.mass.g))

hra_ratio
```

```
## # A tibble: 569 x 6
##    genus         species        mean.mass.g log10.mass log10.hra hra.mass.ratio
##    <chr>         <chr>                <dbl>      <dbl>     <dbl>          <dbl>
##  1 elephas       maximus           4000000.       6.60      8.04           1.22
##  2 loxodonta     africana          4000000.       6.60      9.24           1.40
##  3 ceratotherium simum             2249987.       6.35      7.20           1.13
##  4 giraffa       camelopardalis    1339985.       6.13      8.14           1.33
##  5 diceros       bicornis          1050002.       6.02      7.62           1.27
##  6 taurotragus   oryx               635038.       5.80      7.72           1.33
##  7 bison         bison              629999.       5.80      8.42           1.45
##  8 oreamnos      americanus         629999.       5.80      7.37           1.27
##  9 bison         bonasus            628001.       5.80      7.01           1.21
## 10 equus         caballus           427996.       5.63      7.35           1.30
## # … with 559 more rows
```
…
