Lab 6 Homework
…
The questions below are open-ended and have many possible solutions. Your approach should, where appropriate, include numerical summaries and visuals. Be creative; assume you are building an analysis that you would ultimately present to an audience of stakeholders. Feel free to try out different geoms if they more clearly present your results.

1. Use the function(s) of your choice to get an idea of the overall structure of the data frame, including its dimensions, column names, variable classes, etc. As part of this, determine how NAs are treated in the data.

gapminder <- gapminder

gapminder %>% 
  colnames()

## [1] "country"   "continent" "year"      "lifeExp"   "pop"       "gdpPercap"

gapminder

## # A tibble: 1,704 x 6
##    country     continent  year lifeExp      pop gdpPercap
##    <fct>       <fct>     <int>   <dbl>    <int>     <dbl>
##  1 Afghanistan Asia       1952    28.8  8425333      779.
##  2 Afghanistan Asia       1957    30.3  9240934      821.
##  3 Afghanistan Asia       1962    32.0 10267083      853.
##  4 Afghanistan Asia       1967    34.0 11537966      836.
##  5 Afghanistan Asia       1972    36.1 13079460      740.
##  6 Afghanistan Asia       1977    38.4 14880372      786.
##  7 Afghanistan Asia       1982    39.9 12881816      978.
##  8 Afghanistan Asia       1987    40.8 13867957      852.
##  9 Afghanistan Asia       1992    41.7 16317921      649.
## 10 Afghanistan Asia       1997    41.8 22227415      635.
## #  with 1,694 more rows
…
## # A tibble: 6 x 3
##   variable  n_miss pct_miss
##   <chr>      <int>    <dbl>
## 1 country        0        0
## 2 continent      0        0
## 3 year           0        0
## 4 lifeExp        0        0
## 5 pop            0        0
## 6 gdpPercap      0        0

gapminder

## # A tibble: 1,704 x 6
##    country     continent  year lifeExp      pop gdpPercap
##    <fct>       <fct>     <int>   <dbl>    <int>     <dbl>
##  1 Afghanistan Asia       1952    28.8  8425333      779.
##  2 Afghanistan Asia       1957    30.3  9240934      821.
##  3 Afghanistan Asia       1962    32.0 10267083      853.
##  4 Afghanistan Asia       1967    34.0 11537966      836.
##  5 Afghanistan Asia       1972    36.1 13079460      740.
##  6 Afghanistan Asia       1977    38.4 14880372      786.
##  7 Afghanistan Asia       1982    39.9 12881816      978.
##  8 Afghanistan Asia       1987    40.8 13867957      852.
##  9 Afghanistan Asia       1992    41.7 16317921      649.
## 10 Afghanistan Asia       1997    41.8 22227415      635.
## #  with 1,694 more rows
…
